set R := barley oats sugar_beet peanuts;

set N:= protein fat;

param: contents :=

barley     protein 12
oats       protein 12
sugar_beet protein 40
peanuts    protein 60

barley     fat  2
oats       fat  6
sugar_beet fat 12
peanuts    fat 20

;

param: c :=

barley     0.24
oats       0.30
sugar_beet 0.40
peanuts    0.5

;

param: need:=
protein 20
fat 2
;